<?xml version="1.0" standalone="no"?>
<!DOCTYPE svg PUBLIC "-//W3C//DTD SVG 20010904//EN"
 "http://www.w3.org/TR/2001/REC-SVG-20010904/DTD/svg10.dtd">
<svg version="1.0" xmlns="http://www.w3.org/2000/svg"
 width="48.000000pt" height="48.000000pt" viewBox="0 0 48.000000 48.000000"
 preserveAspectRatio="xMidYMid meet">

<g transform="translate(0.000000,48.000000) scale(0.100000,-0.100000)"
fill="#737373" stroke="none">
<path d="M72 418 c-15 -15 -16 -84 -2 -93 6 -4 10 -55 10 -121 0 -155 -1 -154
160 -154 161 0 160 -1 160 154 0 66 4 117 10 121 14 9 13 78 -2 93 -17 17
-319 17 -336 0z m318 -48 l0 -30 -150 0 -150 0 0 30 0 30 150 0 150 0 0 -30z
m-20 -175 l0 -115 -130 0 -130 0 0 115 0 115 130 0 130 0 0 -115z"/>
<path d="M185 260 c-3 -5 0 -13 8 -16 23 -8 102 0 102 11 0 14 -102 19 -110 5z"/>
</g>
</svg>
