<svg width="32" height="32" viewBox="0 0 32 32" fill="none" xmlns="http://www.w3.org/2000/svg">
<path d="M16 17.9059C16.5463 17.9059 17.0872 17.7983 17.592 17.5893C18.0967 17.3802 18.5553 17.0738 18.9416 16.6875C19.3279 16.3012 19.6343 15.8426 19.8433 15.3379C20.0524 14.8332 20.16 14.2922 20.16 13.7459C20.16 13.1996 20.0524 12.6587 19.8433 12.154C19.6343 11.6493 19.3279 11.1907 18.9416 10.8044C18.5553 10.4181 18.0967 10.1117 17.592 9.9026C17.0872 9.69354 16.5463 9.58594 16 9.58594C14.8967 9.58594 13.8386 10.0242 13.0584 10.8044C12.2783 11.5845 11.84 12.6426 11.84 13.7459C11.84 14.8492 12.2783 15.9074 13.0584 16.6875C13.8386 17.4677 14.8967 17.9059 16 17.9059Z" stroke="white" stroke-width="1.5"/>
<path d="M4.82667 11.3194C7.45333 -0.227315 24.56 -0.213981 27.1733 11.3327C28.7067 18.106 24.4933 23.8394 20.8 27.386C19.5094 28.6307 17.7863 29.3263 15.9933 29.3263C14.2003 29.3263 12.4772 28.6307 11.1867 27.386C7.50667 23.8394 3.29333 18.0927 4.82667 11.3194Z" stroke="white" stroke-width="1.5"/>
</svg>
